{
  "compilerOptions": {
    "target": "es5",
    "module": "esnext",
    "baseUrl": "./",
    "moduleResolution": "node",
    "paths": {
      "@/*": [
        "src/*"
      ]
    },
    "lib": [
      "esnext",
      "dom",
      "dom.iterable",
      "scripthost"
    ],
    "jsx": "preserve" // Agregado para que no salga error en el <template>
  },
  "vueCompilerOptions" : {
    "experimentalShamefullySupportOptionsApi": true // Agregado para que no salga warning en export default 
  }
  
}
